module gitlab.com/fixl/eh-gorm

go 1.21.5

require (
	github.com/looplab/eventhorizon v0.16.0
	gorm.io/driver/mysql v1.5.2
	gorm.io/driver/postgres v1.5.4
	gorm.io/gorm v1.25.5
)

require (
	github.com/davecgh/go-spew v1.1.1 // indirect
	github.com/go-sql-driver/mysql v1.7.1 // indirect
	github.com/google/uuid v1.5.0 // indirect
	github.com/jackc/pgpassfile v1.0.0 // indirect
	github.com/jackc/pgservicefile v0.0.0-20231201235250-de7065d80cb9 // indirect
	github.com/jackc/pgx/v5 v5.5.1 // indirect
	github.com/jackc/puddle/v2 v2.2.1 // indirect
	github.com/jinzhu/inflection v1.0.0 // indirect
	github.com/jinzhu/now v1.1.5 // indirect
	github.com/pmezard/go-difflib v1.0.0 // indirect
	github.com/stretchr/testify v1.8.4 // indirect
	golang.org/x/crypto v0.18.0 // indirect
	golang.org/x/sync v0.6.0 // indirect
	golang.org/x/text v0.14.0 // indirect
	gopkg.in/yaml.v3 v3.0.1 // indirect
)
